{
    "title": "TokenResponse",
    "type": "object",
    "properties": {
        "token": {
            "title": "The token session",
            "type": "string"
        },
        "messageInfo": {
            "title": "Server side message about operation",
            "type": "string"
        },
        "error": {
            "title": "Whether an error exists",
            "type": "bool"
        },
        "errorType": {
            "title": "Type of error if exists",
            "type": "string"
        }
    },
    "required" : ["logIn", "token"]
}